D:\65160294 PALMyyy\testgitgroup1\src\main\java\com\newgew\testgitgroup\PALMyyyy.java
D:\65160294 PALMyyy\testgitgroup1\src\main\java\com\newgew\testgitgroup\PunchPanel.java
D:\65160294 PALMyyy\testgitgroup1\src\main\java\com\newgew\testgitgroup\WawaPanel.java
D:\65160294 PALMyyy\testgitgroup1\src\main\java\com\newgew\testgitgroup\TENXJPanel.java
D:\65160294 PALMyyy\testgitgroup1\src\main\java\com\newgew\testgitgroup\AtomPanel.java
D:\65160294 PALMyyy\testgitgroup1\src\main\java\com\newgew\testgitgroup\JanePanel.java
D:\65160294 PALMyyy\testgitgroup1\src\main\java\com\newgew\testgitgroup\DonutPanel.java
D:\65160294 PALMyyy\testgitgroup1\src\main\java\com\newgew\testgitgroup\JoPanel.java
D:\65160294 PALMyyy\testgitgroup1\src\main\java\com\newgew\testgitgroup\MainFrame.java
D:\65160294 PALMyyy\testgitgroup1\src\main\java\com\newgew\testgitgroup\TestGitGroup.java
D:\65160294 PALMyyy\testgitgroup1\src\main\java\com\newgew\testgitgroup\NewJPanelEARN.java
D:\65160294 PALMyyy\testgitgroup1\src\main\java\com\newgew\testgitgroup\JuniorPanel.java
